<?xml version="1.0" encoding="UTF-8" standalone="no"?>
<svg width="20px" height="20px" viewBox="0 0 20 20" version="1.1" xmlns="http://www.w3.org/2000/svg" xmlns:xlink="http://www.w3.org/1999/xlink">
    <defs></defs>
    <g id="Page-1" stroke="none" stroke-width="1" fill="none" fill-rule="evenodd">
        <g id="down-arrow" transform="translate(-4.000000, -32.000000)" fill="#007F39">
            <path d="M15,41 L15,36 L13,36 L13,41 L8,41 L8,43 L13,43 L13,48 L15,48 L15,43 L20,43 L20,41 L15,41 Z M14,52 C19.5228475,52 24,47.5228475 24,42 C24,36.4771525 19.5228475,32 14,32 C8.4771525,32 4,36.4771525 4,42 C4,47.5228475 8.4771525,52 14,52 Z" id="plus"></path>
        </g>
    </g>
</svg>